PrimerCuatri/EdC/P1/previa/fa_v1_tb.vcd
$date
	Tue Sep 23 09:36:56 2025
$end
$version
	Icarus Verilog
$end
$timescale
	10ps
$end
$scope module fa_v1_tb $end
$var wire 1 ! test_sum $end
$var wire 1 " test_carry $end
$var reg 1 # test_a $end
$var reg 1 $ test_b $end
$var reg 1 % test_c_in $end
$scope module fa1 $end
$var wire 1 # a $end
$var wire 1 $ b $end
$var wire 1 % c_in $end
$var wire 1 " c_out $end
$var wire 1 & sum1 $end
$var wire 1 ! sum $end
$var wire 1 ' carry2 $end
$var wire 1 ( carry1 $end
$scope module ha1 $end
$var wire 1 # a $end
$var wire 1 $ b $end
$var reg 1 ( carry $end
$var reg 1 & sum $end
$upscope $end
$scope module ha2 $end
$var wire 1 % a $end
$var wire 1 & b $end
$var reg 1 ' carry $end
$var reg 1 ! sum $end
$upscope $end
$upscope $end
$upscope $end
$enddefinitions $end
$comment Show the parameter values. $end
$dumpall
$end
#0
$dumpvars
0(
0'
0&
0%
0$
0#
0"
0!
$end
#2000
1!
1%
#4000
1&
0%
1$
#6000
1"
1'
0!
1%
#8000
0"
0'
1!
0%
0$
1#
#10000
1"
1'
0!
1%
#12000
0'
1(
0&
0%
1$
#14000
1!
1%
